[
{
  "elements": [
    {
      "keyword": "Background",
      "location": "e2e.feature:3",
      "name": "Opening webpage",
      "steps": [
        {
          "keyword": "Given",
          "location": "e2e.feature:4",
          "name": "I navigate to home page",
          "step_type": "given"
        }
      ],
      "type": "background"
    },
    {
      "keyword": "Scenario",
      "location": "e2e.feature:6",
      "name": "Search an item",
      "status": "passed",
      "steps": [
        {
          "keyword": "Given",
          "location": "e2e.feature:4",
          "match": {
            "arguments": [],
            "location": "steps/common.py:4"
          },
          "name": "I navigate to home page",
          "result": {
            "duration": 3.581624984741211,
            "status": "passed"
          },
          "step_type": "given"
        },
        {
          "keyword": "Given",
          "location": "e2e.feature:7",
          "match": {
            "arguments": [
              {
                "name": "tc_id",
                "value": "0"
              }
            ],
            "location": "steps/common.py:11"
          },
          "name": "Im running the following test case: \"0\"",
          "result": {
            "duration": 0.00018095970153808594,
            "status": "passed"
          },
          "step_type": "given"
        },
        {
          "keyword": "When",
          "location": "e2e.feature:8",
          "match": {
            "arguments": [
              {
                "name": "item",
                "value": "iPhone"
              }
            ],
            "location": "steps/header.py:8"
          },
          "name": "I search for \"iPhone\"",
          "result": {
            "duration": 1.0159008502960205,
            "status": "passed"
          },
          "step_type": "when"
        }
      ],
      "tags": [
        "wip"
      ],
      "type": "scenario"
    }
  ],
  "keyword": "Feature",
  "location": "e2e.feature:1",
  "name": "Search Page",
  "status": "passed",
  "tags": []
}
]
